{
    "fluentMethods": true,
    "relationships": [],
    "fields": [
        {
            "fieldName": "description",
            "fieldType": "String"
        },
        {
            "fieldName": "url",
            "fieldType": "String"
        },
        {
            "fieldName": "createdDate",
            "fieldType": "Instant"
        },
        {
            "fieldName": "createdBy",
            "fieldType": "String"
        }
    ],
    "dto": "no",
    "service": "no",
    "entityTableName": "trace_analysis",
    "jpaMetamodelFiltering": false,
    "pagination": "no"
}
