{
    "fluentMethods": true,
    "relationships": [],
    "fields": [
        {
            "fieldName": "name",
            "fieldType": "String"
        },
        {
            "fieldName": "type",
            "fieldType": "String"
        },
        {
            "fieldName": "url",
            "fieldType": "String"
        },
        {
            "fieldName": "createdDate",
            "fieldType": "ZonedDateTime"
        }
    ],
    "dto": "no",
    "service": "no",
    "entityTableName": "trace_analysis_plot",
    "jpaMetamodelFiltering": false,
    "pagination": "no"
}
